{
  "success": 1,
  "data": [
    {
      "id": 1,
      "src": "/images/common/portrait.jpg"
    },
    {
      "id": 1,
      "src": "/images/common/portrait.jpg"
    },
    {
      "id": 1,
      "src": "/images/common/portrait.jpg"
    },
    {
      "id": 1,
      "src": "/images/common/portrait.jpg"
    },
    {
      "id": 1,
      "src": "/images/common/portrait.jpg"
    },
    {
      "id": 1,
      "src": "/images/common/portrait.jpg"
    },
    {
      "id": 1,
      "src": "/images/common/portrait.jpg"
    },
    {
      "id": 1,
      "src": "/images/common/portrait.jpg"
    },
    {
      "id": 1,
      "src": "/images/common/portrait.jpg"
    },
    {
      "id": 1,
      "src": "/images/common/portrait.jpg"
    },
    {
      "id": 1,
      "src": "/images/common/portrait.jpg"
    },
    {
      "id": 1,
      "src": "/images/common/portrait.jpg"
    }
  ],
  "page": {
    "page": 1,
    "pageSize": 10,
    "total": 18,
    "totalPage": 2
  }
}